{
  "SERVER_NAME": "Devscape",
  "HOSTED": false,
  "DEBUG": true,
  "ECONOMY": false,
  "NEWS_BOARD": false,
  "CONTROL_PANEL": false,
  "MAX_CONNECTIONS": 3,
  "WEBSITE_LINK": "http://deevohub.com/devscape/",
  "FORUM_LINK": "http://www.deevohub.com/forum/",
  "PLAYERS_ONLINE_LINK": "",
  "ITEMLIST_LINK": "",
  "VOTE_LINK": "http://deevohub.com/devscape/vote.html",
  "OWNERS": [
    "FuzzyAvacado",
    "Jord",
    "Ginge"
  ],
  "START_PLAYER_HITPOINTS": 100,
  "DUNG_PLAYER_LOCATION": {
    "x": 199,
    "y": 5009,
    "plane": 0,
    "spawnedByEd": false
  },
  "START_PLAYER_LOCATION": {
    "x": 2551,
    "y": 3100,
    "plane": 0,
    "spawnedByEd": false
  },
  "START_CONTROLER": "",
  "RESPAWN_PLAYER_LOCATION": {
    "x": 2552,
    "y": 3089,
    "plane": 0,
    "spawnedByEd": false
  },
  "COMBAT_XP_RATE": 100,
  "SKILLING_XP_RATE": 75,
  "SALES_TAX": 0.8,
  "SAILING_PAYOUT_MULTIPLIER": 50,
  "DROP_RATE": 1,
  "MIN_FREE_MEM_ALLOWED": 30000000
}