8771 - 1493 4771 0
8771 - 1491 4705 0
8771 - 1492 4698 0
8777 - 1494 4696 0
8777 - 1501 4704 0
8777 - 1504 4702 0
8777 - 1504 4706 0
8777 - 1508 4711 0
8777 - 1507 4706 0
8777 - 1506 4698 0
8772 - 1517 4701 0
8772 - 1513 4703 0
8772 - 1515 4705 0
8772 - 1517 4707 0
8772 - 1516 4711 0
8772 - 1511 4712 0
8781 - 1511 4706 0
8781 - 1511 4702 0
8781 - 1510 4700 0
8781 - 1511 4702 0
8781 - 1513 4705 0
8781 - 1518 4704 0
8781 - 1519 4704 0
8783 - 1508 4696 0
8783 - 1509 4698 0
8783 - 1509 4712 0
8783 - 1511 4710 0
8783 - 1505 4709 0