{
  "shopId": 23,
  "name": "Basic Ingredients shop",
  "mainStock": [
    {
      "price": 2,
      "id": 12155,
      "amount": 10000000
    },
    {
      "price": 2,
      "id": 15262,
      "amount": 10000000
    },
    {
      "price": 24,
      "id": 12183,
      "amount": 10000000
    },
    {
      "price": 491,
      "id": 2859,
      "amount": 10000000
    },
    {
      "price": 158,
      "id": 2138,
      "amount": 10000000
    },
    {
      "price": 1115,
      "id": 6291,
      "amount": 10000000
    },
    {
      "price": 9123,
      "id": 6319,
      "amount": 10000000
    },
    {
      "price": 398,
      "id": 1783,
      "amount": 10000000
    },
    {
      "price": 81,
      "id": 2134,
      "amount": 10000000
    },
    {
      "price": 155,
      "id": 137,
      "amount": 10000000
    },
    {
      "price": 117,
      "id": 6032,
      "amount": 10000000
    },
    {
      "price": 241,
      "id": 3325,
      "amount": 10000000
    },
    {
      "price": 111,
      "id": 12156,
      "amount": 10000000
    },
    {
      "price": 2,
      "id": 6010,
      "amount": 10000000
    },
    {
      "price": 5681,
      "id": 12153,
      "amount": 10000000
    },
    {
      "price": 1473,
      "id": 12109,
      "amount": 10000000
    },
    {
      "price": 1167,
      "id": 12111,
      "amount": 10000000
    },
    {
      "price": 2,
      "id": 12133,
      "amount": 10000000
    },
    {
      "price": 2,
      "id": 12155,
      "amount": 10000000
    },
    {
      "price": 2770,
      "id": 12117,
      "amount": 10000000
    },
    {
      "price": 2276,
      "id": 12119,
      "amount": 10000000
    },
    {
      "price": 16074,
      "id": 12121,
      "amount": 10000000
    },
    {
      "price": 2,
      "id": 1635,
      "amount": 10000000
    },
    {
      "price": 19,
      "id": 9987,
      "amount": 10000000
    },
    {
      "price": 160,
      "id": 1937,
      "amount": 10000000
    },
    {
      "price": 9975,
      "id": 10103,
      "amount": 10000000
    },
    {
      "price": 3527,
      "id": 10095,
      "amount": 10000000
    },
    {
      "price": 5795,
      "id": 10099,
      "amount": 10000000
    },
    {
      "price": 491,
      "id": 6667,
      "amount": 10000000
    },
    {
      "price": 472,
      "id": 9736,
      "amount": 10000000
    },
    {
      "price": 1010,
      "id": 7801,
      "amount": 10000000
    },
    {
      "price": 1903,
      "id": 6287,
      "amount": 10000000
    },
    {
      "price": 1177,
      "id": 8431,
      "amount": 10000000
    },
    {
      "price": 422,
      "id": 2150,
      "amount": 10000000
    },
    {
      "price": 9748,
      "id": 7939,
      "amount": 10000000
    },
    {
      "price": 143,
      "id": 1963,
      "amount": 10000000
    },
    {
      "price": 77,
      "id": 1933,
      "amount": 10000000
    },
    {
      "price": 2425,
      "id": 10117,
      "amount": 10000000
    },
    {
      "price": 5711,
      "id": 14616,
      "amount": 10000000
    },
    {
      "price": 183,
      "id": 6979,
      "amount": 10000000
    }
  ],
  "currency": "GOLD",
  "isGeneralStore": "false",
  "npcIds": [
    -1
  ]
}