{
  "shopId": 2,
  "name": "Bartender",
  "mainStock": [
    {
      "price": 1,
      "id": 1917,
      "amount": 100
    }
  ],
  "currency": "GOLD",
  "isGeneralStore": true,
  "npcIds": [
    731
  ]
}