{
  "shopId": 49,
  "name": "Farming Shop",
  "mainStock": [
    {
      "price": 118,
      "id": 6032,
      "amount": 1000
    },
    {
      "price": 180,
      "id": 6036,
      "amount": 1000
    },
    {
      "price": 80,
      "id": 5341,
      "amount": 1000
    },
    {
      "price": 61,
      "id": 5343,
      "amount": 1000
    },
    {
      "price": 125,
      "id": 5325,
      "amount": 1000
    },
    {
      "price": 101,
      "id": 5331,
      "amount": 1000
    },
    {
      "price": 1,
      "id": 5318,
      "amount": 10000000
    },
    {
      "price": 1,
      "id": 5319,
      "amount": 10000000
    },
    {
      "price": 2,
      "id": 5324,
      "amount": 10000000
    },
    {
      "price": 1,
      "id": 5322,
      "amount": 10000000
    },
    {
      "price": 2,
      "id": 5320,
      "amount": 10000000
    },
    {
      "price": 105,
      "id": 5323,
      "amount": 10000000
    },
    {
      "price": 1493,
      "id": 5321,
      "amount": 10000000
    },
    {
      "price": 1,
      "id": 5305,
      "amount": 10000000
    },
    {
      "price": 3,
      "id": 5306,
      "amount": 10000000
    },
    {
      "price": 8,
      "id": 5097,
      "amount": 10000000
    },
    {
      "price": 11,
      "id": 5096,
      "amount": 10000000
    },
    {
      "price": 1,
      "id": 5307,
      "amount": 10000000
    },
    {
      "price": 2,
      "id": 5308,
      "amount": 10000000
    },
    {
      "price": 18,
      "id": 5309,
      "amount": 10000000
    },
    {
      "price": 1,
      "id": 5310,
      "amount": 10000000
    },
    {
      "price": 10,
      "id": 5311,
      "amount": 10000000
    },
    {
      "price": 150,
      "id": 5358,
      "amount": 10000000
    },
    {
      "price": 200,
      "id": 5359,
      "amount": 10000000
    },
    {
      "price": 250,
      "id": 5360,
      "amount": 10000000
    },
    {
      "price": 300,
      "id": 5480,
      "amount": 10000000
    },
    {
      "price": 300,
      "id": 5482,
      "amount": 10000000
    },
    {
      "price": 300,
      "id": 5481,
      "amount": 10000000
    },
    {
      "price": 300,
      "id": 5483,
      "amount": 10000000
    },
    {
      "price": 300,
      "id": 5484,
      "amount": 10000000
    }
  ],
  "currency": "GOLD",
  "isGeneralStore": "false",
  "npcIds": [
    1552
  ]
}